{
  "kind": "collectionType",
  "collectionName": "product_stocks",
  "info": {
    "singularName": "product-stock",
    "pluralName": "product-stocks",
    "displayName": "Product Stock",
    "description": ""
  },
  "options": {
    "draftAndPublish": true
  },
  "pluginOptions": {},
  "attributes": {
    "product": {
      "type": "relation",
      "relation": "oneToOne",
      "target": "api::product.product"
    },
    "productSizes": {
      "type": "relation",
      "relation": "oneToOne",
      "target": "api::product-size.product-size"
    },
    "productColor": {
      "type": "relation",
      "relation": "oneToOne",
      "target": "api::product-color.product-color"
    },
    "productPictures": {
      "type": "media",
      "multiple": true,
      "required": false,
      "allowedTypes": [
        "images"
      ]
    },
    "stock": {
      "type": "integer",
      "required": true,
      "min": 0,
      "default": 0
    },
    "productSecondaryColor": {
      "type": "relation",
      "relation": "oneToOne",
      "target": "api::product-secondary-color.product-secondary-color"
    },
    "descriptions": {
      "type": "customField",
      "options": {
        "preset": "toolbar"
      },
      "customField": "plugin::ckeditor5.CKEditor"
    },
    "checkout_items": {
      "type": "relation",
      "relation": "oneToMany",
      "target": "api::checkout-item.checkout-item",
      "mappedBy": "stock_id"
    }
  }
}
