{
  "kind": "singleType",
  "collectionName": "terms_and_conditions",
  "info": {
    "singularName": "terms-and-condition",
    "pluralName": "terms-and-conditions",
    "displayName": "Terms and Conditions",
    "description": ""
  },
  "options": {
    "draftAndPublish": true
  },
  "pluginOptions": {},
  "attributes": {
    "title": {
      "type": "string"
    },
    "content": {
      "type": "customField",
      "options": {
        "preset": "toolbarBaloon"
      },
      "customField": "plugin::ckeditor5.CKEditor"
    }
  }
}
